module bitbucket.org/espinpro/brf.im

go 1.23.3

toolchain go1.23.4

require (
	bitbucket.org/espinpro/espincore/v3 v3.3.29
	github.com/gofiber/fiber/v2 v2.52.4
	github.com/skip2/go-qrcode v0.0.0-20200617195104-da1b6568686e
	go.mongodb.org/mongo-driver v1.15.0
)

require (
	github.com/agoda-com/opentelemetry-go/otelslog v0.1.1 // indirect
	github.com/agoda-com/opentelemetry-logs-go v0.5.0 // indirect
	github.com/andybalholm/brotli v1.1.0 // indirect
	github.com/caarlos0/env/v10 v10.0.0 // indirect
	github.com/cenkalti/backoff/v4 v4.3.0 // indirect
	github.com/go-logr/logr v1.4.2 // indirect
	github.com/go-logr/stdr v1.2.2 // indirect
	github.com/go-ole/go-ole v1.3.0 // indirect
	github.com/go-slog/otelslog v0.1.0 // indirect
	github.com/golang/snappy v0.0.4 // indirect
	github.com/google/gops v0.3.28 // indirect
	github.com/google/uuid v1.6.0 // indirect
	github.com/grpc-ecosystem/grpc-gateway/v2 v2.20.0 // indirect
	github.com/hashicorp/errwrap v1.1.0 // indirect
	github.com/hashicorp/go-multierror v1.1.1 // indirect
	github.com/josharian/intern v1.0.0 // indirect
	github.com/klauspost/compress v1.17.9 // indirect
	github.com/lufia/plan9stats v0.0.0-20240513124658-fba389f38bae // indirect
	github.com/mailru/easyjson v0.7.7 // indirect
	github.com/mattn/go-colorable v0.1.13 // indirect
	github.com/mattn/go-isatty v0.0.20 // indirect
	github.com/mattn/go-runewidth v0.0.15 // indirect
	github.com/montanaflynn/stats v0.6.6 // indirect
	github.com/nats-io/nats.go v1.34.1 // indirect
	github.com/nats-io/nkeys v0.4.7 // indirect
	github.com/nats-io/nuid v1.0.1 // indirect
	github.com/pkg/errors v0.9.1 // indirect
	github.com/power-devops/perfstat v0.0.0-20240221224432-82ca36839d55 // indirect
	github.com/rivo/uniseg v0.2.0 // indirect
	github.com/samber/lo v1.47.0 // indirect
	github.com/samber/slog-multi v1.0.3 // indirect
	github.com/shirou/gopsutil/v3 v3.24.4 // indirect
	github.com/shoenig/go-m1cpu v0.1.6 // indirect
	github.com/tklauser/go-sysconf v0.3.14 // indirect
	github.com/tklauser/numcpus v0.8.0 // indirect
	github.com/valyala/bytebufferpool v1.0.0 // indirect
	github.com/valyala/fasthttp v1.55.0 // indirect
	github.com/valyala/tcplisten v1.0.0 // indirect
	github.com/xdg-go/pbkdf2 v1.0.0 // indirect
	github.com/xdg-go/scram v1.1.2 // indirect
	github.com/xdg-go/stringprep v1.0.4 // indirect
	github.com/youmark/pkcs8 v0.0.0-20181117223130-1be2e3e5546d // indirect
	github.com/yusufpapurcu/wmi v1.2.4 // indirect
	go.opentelemetry.io/contrib/instrumentation/host v0.52.0 // indirect
	go.opentelemetry.io/contrib/instrumentation/runtime v0.52.0 // indirect
	go.opentelemetry.io/otel v1.28.0 // indirect
	go.opentelemetry.io/otel/exporters/otlp/otlpmetric/otlpmetricgrpc v1.27.0 // indirect
	go.opentelemetry.io/otel/exporters/otlp/otlptrace v1.27.0 // indirect
	go.opentelemetry.io/otel/exporters/otlp/otlptrace/otlptracegrpc v1.27.0 // indirect
	go.opentelemetry.io/otel/metric v1.28.0 // indirect
	go.opentelemetry.io/otel/sdk v1.27.0 // indirect
	go.opentelemetry.io/otel/sdk/metric v1.27.0 // indirect
	go.opentelemetry.io/otel/trace v1.28.0 // indirect
	go.opentelemetry.io/proto/otlp v1.2.0 // indirect
	golang.org/x/crypto v0.24.0 // indirect
	golang.org/x/net v0.26.0 // indirect
	golang.org/x/sync v0.7.0 // indirect
	golang.org/x/sys v0.21.0 // indirect
	golang.org/x/text v0.16.0 // indirect
	google.golang.org/genproto/googleapis/api v0.0.0-20240528184218-531527333157 // indirect
	google.golang.org/genproto/googleapis/rpc v0.0.0-20240528184218-531527333157 // indirect
	google.golang.org/grpc v1.65.0 // indirect
	google.golang.org/protobuf v1.34.2 // indirect
)
